…
         segment = case_when(segment == "Consumer" ~ 1,
                             segment == "Corporate" ~ 2,
                             TRUE ~ 3), #Home Office
         ship_mode = case_when(ship_mode == "Same Day" ~ 1,
                               ship_mode == "First Class" ~ 2,
                               ship_mode == "Second Class" ~ 3,
                               TRUE ~ 4), # Standard Class
         order_priority = case_when(order_priority == "Critical" ~ 1,
                                    order_priority == "High" ~ 2,
                                    order_priority == "Medium" ~ 3,
                                    TRUE ~ 4)) %>%  #Low
  select(-c(customer_id, order_date))
```

    ## # A tibble: 51,290 x 7
    ##    ship_mode segment shipping_cost order_priority  profit num_in_order
    ##        <dbl>   <dbl>         <dbl>          <dbl>   <dbl>        <int>
    ##  1         1       1          934.              1   762.             3
    ##  2         3       2          924.              1  -289.             4
    ##  3         2       1          915.              3   920.             5
    ##  4         2       3          910.              3   -96.5            1
    ##  5         1       1          903.              1   312.             1
    ##  6         3       2          897.              1   763.             5
    ##  7         2       1          895.              1   565.             2
    ##  8         4       1          878.              2   996.             1
    ##  9         4       2          868.              4  1906.             3
    ## 10         3       1          866.              1 -1862.             1
    ## # … with 51,280 more rows, and 1 more variable: order_month <dbl>
…
